<html> 
	<h2 align='center'>Формальная постановка задачи</h2>
	<b><i>Вариант задачи без учета дополнительной информации.</i></b><br/> 
	<p>     
		Множество решений <b>D</b> = {d<sub>1</sub>, d<sub>2</sub>} соответствует решению Нэнси, где 
		d<sub>1</sub> - решение делать ставку; 
		d<sub>2</sub> - решение не делать ставку. 

		Случайная величина <br/><b>Y</b> = {y<sub>1</sub>, y<sub>2</sub>}, где 
		y<sub>1</sub> - тренер принал решение попытаться забить гол и 
		y<sub>2</sub> - тренер принял решение совершить тачдаун, 

		<b>X</b> = {x<sub>1</sub>, x<sub>2</sub>}, где 
		x<sub>1</sub> - команда победила и
		x<sub>2</sub> - команда проиграла. 

		Принятое решение описывается величиной <i>D</i>, принимающей значения из множества <b>D</b>. 
		Вероятность события <br/>x<sub>i</sub> в случае пинятия тренером решения y<sub>j</sub> будем обозначать как 
		p<sub>ij</sub> = Pr{X = x<sub>i</sub> / Y = y<sub>j</sub>}, при этом p<sub>11</sub> > p<sub>12</sub>, 
		так как шанс заработать одно очко гораздо выше, чем шанс заработать два очка.

		В зависимости от принятого решения Нэнси, тренера и его результата можно выделить шесть исходов (альтернатив),
		входящих во множество исходов (альтернатив) 
		<b>A</b> = {a<sub>1</sub>, a<sub>2</sub>, a<sub>3</sub>, a<sub>4</sub>, a<sub>5</sub>, a<sub>6</sub>}, где 
		a<sub>1</sub> - тренер принял решение попытаться забить гол, Нэнси решила не делать ставку;  <br/>
		a<sub>2</sub> - тренер принял решение попытаться забить гол, Нэнси сделала ставку, команда победила; <br/>
		a<sub>3</sub> - тренер принял решение попытаться забить гол, Нэнси сделала ставку, команда проиграла;<br/>
		a<sub>4</sub> - тренер принял решение совершить тачдаун, Нэнси решила не делать ставку; <br/>
		a<sub>5</sub> - тренер принял решение совершить тачдаун, Нэнси сделала ставку, команда победила;  <br/>
		a<sub>6</sub> - тренер принял решение совершить тачдаун, Нэнси <br/>сделала ставку, команда проиграла.<br/><br/>  

		<b>Дерево решений для данной задачи будет иметь следующий вид:</b><br/><br/>
	</p>   
</html>