<html> 
	<h2 align='center'>Неформальная постановка задачи</h2> 
	<p align='justify'>     <br/>
		Пусть некий фермер выращивает растения, не устойчивые к низким температурам. 
		При температуре ниже нуля градусов посевы замерзнут, и урожай будет полностью потерян.
		Существуют методы защиты посевов от заморозков, которые позволяют частично сохранить урожай, 
		однако они являются достаточно дорогостоящими. Фермеру требуется выбрать один из двух возможных
		вариантов решений – защищать или не защищать посевы от заморозков. При выборе первого варианта
		решения фермер частично сохранит урожай вне зависимости от погоды, однако затратит значительные
		средства на защиту посевов. При выборе второго варианта в случае теплой погоды фермер получит 
		высокий доход, а в случае заморозков полностью потеряет урожай и понесет большие убытки.
	</p>   
</html>